<svg xmlns="http://www.w3.org/2000/svg" viewBox="0 0 24 24">
    <path fill-rule="evenodd" d="M21.555 4.412c.572.57.596 1.52.052 2.12l-11.756 13c-.27.3-.645.468-1.036.468-.392 0-.767-.169-1.036-.467l-5.386-5.954c-.544-.6-.52-1.55.052-2.12a1.381 1.381 0 0 1 2.02.054l4.35 4.809 10.72-11.855a1.381 1.381 0 0 1 2.02-.055z" clip-rule="evenodd"/>
</svg>
